{
  "name": "OPENALPR_IN",
  "type": "UPLINK",
  "debugMode": false,
  "configuration": {
    "decoder": "// Decode an uplink message from a buffer\n// payload - array of bytes\n// metadata - key/value object\n\n/** Decoder **/\n\n// decode payload to string\nvar payloadStr = decodeToString(payload);\n\n// decode payload to JSON\nvar data = decodeToJson(payload);\n\n//check for test packet\nif (data.openalpr_webhook == \"test\") {\n    var packet = {\n        deviceName: \"alpr_test\",\n        deviceType: \"default\",\n        attributes: {\n            test_packet: Date.now()\n        },\n        telemetry: {}\n    }\n    \n    return packet;\n}\n\nvar deviceName = data.web_server_config.agent_label + \"-\" + data.web_server_config.camera_label;\nvar deviceType = 'alpr_camera';\n\nvar orientation = data.vehicle.orientation[0].name;\nvar color = data.vehicle.color[0].name;\nvar make = data.vehicle.make[0].name;\nvar body_type = data.vehicle.body_type[0].name;\nvar year = data.vehicle.year[0].name;\nvar make_model = data.vehicle.make_model[0].name;\n\n//Add in a pretty formatted detection date and time\nvar d = new Date(data.epoch_start);\nvar dd = String((\"0\" + d.getDate()).slice(-2));\nvar mm = String((\"0\" + (d.getMonth()+1)).slice(-2));\nvar yyyy = d.getFullYear();\nvar sDate = mm + '/' + dd + '/' + yyyy;\nvar nHours = d.getHours();\nif (nHours<4) nHours = 20 + nHours;\nelse nHours = nHours - 4;\nvar sTime = (\"0\" + nHours).slice(-2) + \":\" +  (\"0\" + d.getMinutes()).slice(-2) + \":\" +  (\"0\" + (d.getSeconds()+0)).slice(-2)\n\nvar result = {\n   deviceName: deviceName,\n   deviceType: deviceType,\n   ts: data.epoch_start,\n\n   attributes: {\n       agent_type: data.agent_type,\n       agent_uuid: data.agent_uuid,\n       camera_id: data.camera_id,\n       version: data.version,\n       gps_latitude: data.gps_latitude,\n       gps_longitude: data.gps_longitude,\n       \n       integrationName: metadata['integrationName']\n   },\n   telemetry: {\n       ts: data.epoch_start,\n       values:{ \n           plate: data.best_plate.plate,\n           confidence: data.best_plate.confidence,\n           region_confidence: data.best_plate.region_confidence,\n           region: data.best_plate.region,\n           processing_time: data.best_plate.processing_time,\n           vehicle_detected: data.vehicle_detected,\n           is_parked: data.is_parked,\n           orientation: orientation,\n           color: color,\n           body_type: body_type,\n           year: year,\n           make: make,\n           make_model: make_model,\n           plate_crop_jpeg: \"data:image/jpeg;base64,\" + data.best_plate.plate_crop_jpeg,\n           detection_date: sDate,\n           detection_time: sTime,\n           vehicle_crop_jpeg: \"data:image/jpeg;base64,\" + data.vehicle_crop_jpeg,\n           timestamp: data.epoch_start \n       }\n   }\n};\n\n/** Helper functions **/\n\nfunction decodeToString(payload) {\n   return String.fromCharCode.apply(String, payload);\n}\n\nfunction decodeToJson(payload) {\n   // covert payload to string.\n   var str = decodeToString(payload);\n\n   // parse string to JSON\n   var data = JSON.parse(str);\n   return data;\n}\n\nreturn result;",
    "encoder": null
  },
  "additionalInfo": {
    "description": ""
  }
}